{
  "files": {
    "main.css": "/static/css/main.c585ed2f.chunk.css",
    "main.js": "/static/js/main.d3b41c1d.chunk.js",
    "main.js.map": "/static/js/main.d3b41c1d.chunk.js.map",
    "runtime-main.js": "/static/js/runtime-main.09b85ec0.js",
    "runtime-main.js.map": "/static/js/runtime-main.09b85ec0.js.map",
    "static/js/2.63e13bce.chunk.js": "/static/js/2.63e13bce.chunk.js",
    "static/js/2.63e13bce.chunk.js.map": "/static/js/2.63e13bce.chunk.js.map",
    "index.html": "/index.html",
    "precache-manifest.a4e18f258548641395ace1516be56d95.js": "/precache-manifest.a4e18f258548641395ace1516be56d95.js",
    "service-worker.js": "/service-worker.js",
    "static/css/main.c585ed2f.chunk.css.map": "/static/css/main.c585ed2f.chunk.css.map",
    "static/js/2.63e13bce.chunk.js.LICENSE.txt": "/static/js/2.63e13bce.chunk.js.LICENSE.txt"
  },
  "entrypoints": [
    "static/js/runtime-main.09b85ec0.js",
    "static/js/2.63e13bce.chunk.js",
    "static/css/main.c585ed2f.chunk.css",
    "static/js/main.d3b41c1d.chunk.js"
  ]
}